<?xml version="1.0" encoding="utf-8"?>
<!-- Generator: Adobe Illustrator 23.0.5, SVG Export Plug-In . SVG Version: 6.00 Build 0)  -->
<svg version="1.1" id="Layer_1" xmlns="http://www.w3.org/2000/svg" xmlns:xlink="http://www.w3.org/1999/xlink" x="0px" y="0px"
	 viewBox="0 0 76 74" style="enable-background:new 0 0 76 74;" xml:space="preserve">
<style type="text/css">
	.st0{fill:#FFF7BB;}
	.st1{fill:none;stroke:#828282;stroke-miterlimit:10;}
	.st2{fill:none;stroke:#C6C6C6;stroke-miterlimit:10;}
	.st3{fill:#828282;}
	.st4{fill:#FFF385;}
	.st5{fill:#636363;}
	.st6{fill:#FFFFFF;}
	.st7{fill:#8BCB0A;}
	.st8{fill:#419B19;}
	.st9{fill:#FF9800;}
	.st10{fill:#FFD01F;}
	.st11{fill:#FDB600;}
	.st12{clip-path:url(#XMLID_2_);fill:none;stroke:#6DBDC2;stroke-width:6;stroke-miterlimit:10;}
	.st13{fill:#454C53;}
	.st14{fill:#E79F03;}
	.st15{fill:#347A91;}
	.st16{fill:#6DBDC2;}
	.st17{fill:#7C7C7C;}
	.st18{fill:#FDD215;}
	.st19{fill:#2C307F;}
	.st20{fill:#D01024;}
	.st21{fill:none;stroke:#000000;stroke-miterlimit:10;}
	.st22{fill:url(#SVGID_1_);}
	.st23{fill:#FFF385;stroke:#000000;stroke-miterlimit:10;}
	.st24{fill:#A5A5A5;stroke:#000000;stroke-miterlimit:10;}
	.st25{fill:#666353;stroke:#000000;stroke-miterlimit:10;}
	.st26{fill:url(#SVGID_2_);}
	.st27{fill:url(#SVGID_3_);}
	.st28{fill:url(#SVGID_4_);}
</style>
<circle class="st17" cx="38" cy="37" r="24"/>
</svg>
