<?xml version="1.0" encoding="utf-8"?>
<!-- Generator: Adobe Illustrator 23.0.5, SVG Export Plug-In . SVG Version: 6.00 Build 0)  -->
<svg version="1.1" id="Layer_1" xmlns="http://www.w3.org/2000/svg" xmlns:xlink="http://www.w3.org/1999/xlink" x="0px" y="0px"
	 viewBox="0 0 196 1633" style="enable-background:new 0 0 196 1633;" xml:space="preserve">
<style type="text/css">
	.st0{fill:#FFF7BB;}
	.st1{fill:none;stroke:#828282;stroke-miterlimit:10;}
	.st2{fill:none;stroke:#C6C6C6;stroke-miterlimit:10;}
	.st3{fill:#828282;}
	.st4{fill:#FFF385;}
	.st5{fill:#636363;}
	.st6{fill:#FFFFFF;}
	.st7{fill:#8BCB0A;}
	.st8{fill:#419B19;}
	.st9{fill:#FF9800;}
	.st10{fill:#FFD01F;}
	.st11{fill:#FDB600;}
	.st12{clip-path:url(#XMLID_2_);fill:none;stroke:#6DBDC2;stroke-width:6;stroke-miterlimit:10;}
	.st13{fill:#454C53;}
	.st14{fill:#E79F03;}
	.st15{fill:#347A91;}
	.st16{fill:#6DBDC2;}
	.st17{fill:#7C7C7C;}
	.st18{fill:#FDD215;}
	.st19{fill:#2C307F;}
	.st20{fill:#D01024;}
	.st21{fill:none;stroke:#000000;stroke-miterlimit:10;}
	.st22{fill:url(#SVGID_1_);}
	.st23{fill:#FFF385;stroke:#000000;stroke-miterlimit:10;}
	.st24{fill:#A5A5A5;stroke:#000000;stroke-miterlimit:10;}
	.st25{fill:#666353;stroke:#000000;stroke-miterlimit:10;}
	.st26{fill:url(#SVGID_2_);}
	.st27{fill:url(#SVGID_3_);}
	.st28{fill:url(#SVGID_4_);}
</style>
<g>
	<line class="st21" x1="95.1" y1="83.17" x2="95.1" y2="1570.52"/>
	<rect x="82.02" y="83.17" class="st25" width="28.01" height="473.85"/>
	<path class="st25" d="M95.1,124.62c22.89,0,41.45-18.56,41.45-41.45c0-22.89-18.55-41.45-41.45-41.45S53.65,60.28,53.65,83.17
		C53.65,106.06,72.21,124.62,95.1,124.62z"/>
	<path d="M95.1,98.1c-8.24,0-14.93-6.68-14.93-14.93c0-8.24,6.68-14.93,14.93-14.93c8.24,0,14.93,6.68,14.93,14.93
		C110.03,91.42,103.35,98.1,95.1,98.1z"/>
	
		<linearGradient id="SVGID_1_" gradientUnits="userSpaceOnUse" x1="-1308.1273" y1="4074.5171" x2="-859.2035" y2="4074.5171" gradientTransform="matrix(0 1 -1 0 4169.6172 1865.1487)">
		<stop  offset="4.926110e-03" style="stop-color:#666666"/>
		<stop  offset="0.0684" style="stop-color:#747369"/>
		<stop  offset="0.1884" style="stop-color:#999570"/>
		<stop  offset="0.3509" style="stop-color:#D4CC7C"/>
		<stop  offset="0.4581" style="stop-color:#FFF385"/>
		<stop  offset="0.4837" style="stop-color:#E3D97F"/>
		<stop  offset="0.521" style="stop-color:#C2BB79"/>
		<stop  offset="0.5626" style="stop-color:#A5A073"/>
		<stop  offset="0.6087" style="stop-color:#8E8B6E"/>
		<stop  offset="0.6614" style="stop-color:#7C7A6A"/>
		<stop  offset="0.7246" style="stop-color:#6F6F68"/>
		<stop  offset="0.8087" style="stop-color:#686866"/>
		<stop  offset="1" style="stop-color:#666666"/>
	</linearGradient>
	<rect x="81.09" y="557.02" class="st22" width="28.01" height="448.92"/>
	<g>
		<path class="st23" d="M95.1,613.4c22.89,0,41.45-18.56,41.45-41.45c0-22.89-18.55-41.45-41.45-41.45s-41.45,18.56-41.45,41.45
			C53.65,594.84,72.21,613.4,95.1,613.4z"/>
		<path d="M95.1,586.88c-8.24,0-14.93-6.68-14.93-14.93c0-8.24,6.68-14.93,14.93-14.93c8.24,0,14.93,6.68,14.93,14.93
			C110.03,580.19,103.35,586.88,95.1,586.88z"/>
	</g>
	<g>
		<path class="st24" d="M96.94,1040.31c22.89,0,41.45-18.56,41.45-41.45c0-22.89-18.55-41.45-41.45-41.45S55.5,975.98,55.5,998.87
			C55.5,1021.76,74.05,1040.31,96.94,1040.31z"/>
		<path d="M96.94,1013.79c-8.24,0-14.93-6.68-14.93-14.93c0-8.24,6.68-14.93,14.93-14.93c8.24,0,14.93,6.68,14.93,14.93
			C111.87,1007.11,105.19,1013.79,96.94,1013.79z"/>
	</g>
	<g>
		<path class="st24" d="M96.94,1597.04c22.89,0,41.45-18.56,41.45-41.45s-18.55-41.45-41.45-41.45s-41.45,18.56-41.45,41.45
			S74.05,1597.04,96.94,1597.04z"/>
		<path d="M96.94,1570.52c-8.24,0-14.93-6.68-14.93-14.93c0-8.24,6.68-14.93,14.93-14.93c8.24,0,14.93,6.68,14.93,14.93
			C111.87,1563.84,105.19,1570.52,96.94,1570.52z"/>
	</g>
</g>
</svg>
