<?xml version="1.0" encoding="utf-8"?>
<!-- Generator: Adobe Illustrator 23.0.5, SVG Export Plug-In . SVG Version: 6.00 Build 0)  -->
<svg version="1.1" id="Layer_1" xmlns="http://www.w3.org/2000/svg" xmlns:xlink="http://www.w3.org/1999/xlink" x="0px" y="0px"
	 viewBox="0 0 178 102" style="enable-background:new 0 0 178 102;" xml:space="preserve">
<style type="text/css">
	.st0{fill:#FFF7BB;}
	.st1{fill:none;stroke:#828282;stroke-miterlimit:10;}
	.st2{fill:none;stroke:#C6C6C6;stroke-miterlimit:10;}
	.st3{fill:#828282;}
	.st4{fill:#FFF385;}
	.st5{fill:#636363;}
	.st6{fill:#FFFFFF;}
	.st7{fill:#8BCB0A;}
	.st8{fill:#419B19;}
	.st9{fill:#FF9800;}
	.st10{fill:#FFD01F;}
	.st11{fill:#FDB600;}
	.st12{fill:#454C53;}
	.st13{font-family:'Roboto-Regular';}
	.st14{font-size:6.7542px;}
	.st15{letter-spacing:1;}
	.st16{font-family:'Roboto-Light';}
	.st17{font-size:20.1529px;}
	.st18{clip-path:url(#XMLID_2_);fill:none;stroke:#6DBDC2;stroke-width:6;stroke-miterlimit:10;}
	.st19{fill:#E79F03;}
	.st20{fill:#347A91;}
	.st21{fill:#6DBDC2;}
	.st22{font-size:6.4236px;}
	.st23{fill:#7C7C7C;}
	.st24{fill:#FDD215;}
	.st25{fill:#2C307F;}
	.st26{fill:#D01024;}
	.st27{fill:none;stroke:#000000;stroke-miterlimit:10;}
	.st28{fill:url(#SVGID_1_);}
	.st29{fill:#FFF385;stroke:#000000;stroke-miterlimit:10;}
	.st30{fill:#A5A5A5;stroke:#000000;stroke-miterlimit:10;}
	.st31{fill:#666353;stroke:#000000;stroke-miterlimit:10;}
	.st32{fill:url(#SVGID_2_);}
	.st33{fill:url(#SVGID_3_);}
	.st34{fill:url(#SVGID_4_);}
</style>
<g>
	<g>
		<path class="st9" d="M136.29,74.14H49.36c-5.53,0-10.01-4.48-10.01-10.01V16.27c0-5.53,4.48-10.01,10.01-10.01h86.93
			c5.53,0,10.01,4.48,10.01,10.01v47.86C146.3,69.66,141.82,74.14,136.29,74.14z"/>
		<rect x="108.47" y="14.09" class="st10" width="29.93" height="6.01"/>
		<rect x="49.77" y="14.09" class="st11" width="58.7" height="6.01"/>
		<path class="st11" d="M138.53,54.68c-2.76-2.76-7.22-2.76-9.98,0c-0.57,0.58-1.02,1.23-1.36,1.92c-1.14-2.36-3.55-3.99-6.35-3.99
			c-3.9,0-7.06,3.16-7.06,7.06c0,3.9,3.16,7.06,7.06,7.06c2.8,0,5.21-1.63,6.35-3.99c0.33,0.7,0.78,1.35,1.36,1.92
			c2.76,2.76,7.23,2.76,9.98,0C141.29,61.91,141.29,57.44,138.53,54.68z"/>
		<text transform="matrix(1 0 0 1 44.2124 48.5659)" class="st12 st13 st14 st15">0002 0003 0004 0005</text>
		<text transform="matrix(1 0 0 1 82.8345 39.2593)" class="st11 st16 st17 st15">CARD</text>
	</g>
	<g>
		<path class="st10" d="M122.81,95.73H35.89c-5.53,0-10.01-4.48-10.01-10.01V37.87c0-5.53,4.48-10.01,10.01-10.01h86.93
			c5.53,0,10.01,4.48,10.01,10.01v47.86C132.82,91.26,128.34,95.73,122.81,95.73z"/>
		<g>
			<defs>
				<path id="XMLID_5_" d="M132.82,44.52v-4.9c0-6.49-5.27-11.76-11.76-11.76H37.64c-6.49,0-11.76,5.26-11.76,11.76v4.9H132.82z"/>
			</defs>
			<use xlink:href="#XMLID_5_"  style="overflow:visible;fill:#FFD01F;"/>
			<clipPath id="XMLID_2_">
				<use xlink:href="#XMLID_5_"  style="overflow:visible;"/>
			</clipPath>
			<line class="st18" x1="32.24" y1="48.4" x2="50.44" y2="23.98"/>
			<line class="st18" x1="51.72" y1="48.4" x2="69.92" y2="23.98"/>
			<line class="st18" x1="71.2" y1="48.4" x2="89.4" y2="23.98"/>
			<line class="st18" x1="90.68" y1="48.4" x2="108.88" y2="23.98"/>
			<line class="st18" x1="110.16" y1="48.4" x2="128.36" y2="23.98"/>
		</g>
		<rect x="25.88" y="38.87" class="st12" width="106.94" height="10.48"/>
		<rect x="31.06" y="55.76" class="st6" width="67.36" height="12.02"/>
		
			<rect x="103.78" y="76.46" transform="matrix(-1 -1.224647e-16 1.224647e-16 -1 230.1817 164.9278)" class="st6" width="22.61" height="12.02"/>
		
			<rect x="60.82" y="83.06" transform="matrix(-1 -1.224647e-16 1.224647e-16 -1 159.2383 171.5293)" class="st19" width="37.59" height="5.42"/>
		<rect x="31.06" y="80.37" class="st20" width="24.14" height="7.89"/>
		<path class="st21" d="M124.59,57.39c-2.42-2.42-6.33-2.42-8.75,0c-0.5,0.5-0.9,1.08-1.19,1.68c-1-2.07-3.11-3.5-5.56-3.5
			c-3.42,0-6.19,2.77-6.19,6.19c0,3.42,2.77,6.19,6.19,6.19c2.45,0,4.56-1.43,5.56-3.5c0.29,0.61,0.69,1.18,1.19,1.68
			c2.42,2.42,6.33,2.42,8.75,0C127,63.73,127,59.81,124.59,57.39z"/>
		<text transform="matrix(1 0 0 1 31.0562 75.9097)" class="st12 st13 st22 st15">0002 0003 0004</text>
	</g>
</g>
</svg>
