<?xml version="1.0" encoding="utf-8"?>
<!-- Generator: Adobe Illustrator 23.0.5, SVG Export Plug-In . SVG Version: 6.00 Build 0)  -->
<svg version="1.1" id="Layer_1" xmlns="http://www.w3.org/2000/svg" xmlns:xlink="http://www.w3.org/1999/xlink" x="0px" y="0px"
	 viewBox="0 0 198 165" style="enable-background:new 0 0 198 165;" xml:space="preserve">
<style type="text/css">
	.st0{fill:#FFF7BB;}
	.st1{fill:none;stroke:#828282;stroke-miterlimit:10;}
	.st2{fill:none;stroke:#C6C6C6;stroke-miterlimit:10;}
	.st3{fill:#828282;}
	.st4{fill:#FFF385;}
	.st5{fill:#636363;}
	.st6{fill:#FFFFFF;}
	.st7{fill:#8BCB0A;}
	.st8{fill:#419B19;}
	.st9{fill:#FF9800;}
	.st10{fill:#FFD01F;}
	.st11{fill:#FDB600;}
	.st12{clip-path:url(#XMLID_2_);fill:none;stroke:#6DBDC2;stroke-width:6;stroke-miterlimit:10;}
	.st13{fill:#454C53;}
	.st14{fill:#E79F03;}
	.st15{fill:#347A91;}
	.st16{fill:#6DBDC2;}
	.st17{fill:#7C7C7C;}
	.st18{fill:#FDD215;}
	.st19{fill:#2C307F;}
	.st20{fill:#D01024;}
	.st21{fill:none;stroke:#000000;stroke-miterlimit:10;}
	.st22{fill:url(#SVGID_1_);}
	.st23{fill:#FFF385;stroke:#000000;stroke-miterlimit:10;}
	.st24{fill:#A5A5A5;stroke:#000000;stroke-miterlimit:10;}
	.st25{fill:#666353;stroke:#000000;stroke-miterlimit:10;}
	.st26{fill:url(#SVGID_2_);}
	.st27{fill:url(#SVGID_3_);}
	.st28{fill:url(#SVGID_4_);}
</style>
<g>
	<g>
		<path d="M115.38,120.98H69.25V57.47h46.13V120.98z M71.26,118.98h42.12v-59.5H71.26V118.98z"/>
	</g>
	<g>
		<path d="M128.75,120.98h-15.38V57.47h15.38V120.98z M115.38,118.98h11.37v-59.5h-11.37V118.98z"/>
	</g>
	<g>
		<rect x="120.06" y="58.48" width="2.01" height="48.13"/>
	</g>
	<g>
		<rect x="110.24" y="112.29" transform="matrix(0.4474 -0.8943 0.8943 0.4474 -36.2698 167.8908)" width="14.95" height="2.01"/>
	</g>
	<g>
		<rect x="123.4" y="105.82" transform="matrix(0.8944 -0.4472 0.4472 0.8944 -37.5329 67.5954)" width="2.01" height="14.95"/>
	</g>
	<g>
		<path d="M78.95,58.52c-0.01-0.27-0.28-6.59,3.76-10.84c2.32-2.44,5.55-3.67,9.61-3.67c4.05,0,7.32,1.23,9.7,3.66
			c4.16,4.24,4.09,10.55,4.09,10.81l-2.01-0.04c0-0.06,0.05-5.75-3.52-9.38c-1.99-2.03-4.77-3.05-8.26-3.05
			c-3.49,0-6.23,1.03-8.15,3.05c-3.46,3.63-3.22,9.3-3.21,9.36L78.95,58.52z"/>
	</g>
	<g>
		<path d="M99.47,58.52c-0.01-0.27-0.28-6.59,3.76-10.84c2.32-2.44,5.55-3.67,9.61-3.67c4.05,0,7.32,1.23,9.7,3.66
			c4.16,4.24,4.09,10.55,4.08,10.81l-2.01-0.04c0-0.06,0.05-5.75-3.52-9.38c-1.99-2.03-4.77-3.05-8.26-3.05
			c-3.49,0-6.23,1.03-8.15,3.05c-3.46,3.63-3.21,9.3-3.21,9.36L99.47,58.52z"/>
	</g>
</g>
</svg>
