<?xml version="1.0" encoding="utf-8"?>
<!-- Generator: Adobe Illustrator 23.0.5, SVG Export Plug-In . SVG Version: 6.00 Build 0)  -->
<svg version="1.1" id="Layer_1" xmlns="http://www.w3.org/2000/svg" xmlns:xlink="http://www.w3.org/1999/xlink" x="0px" y="0px"
	 viewBox="0 0 832 503" style="enable-background:new 0 0 832 503;" xml:space="preserve">
<style type="text/css">
	.st0{fill:#FFFFFF;}
	.st1{fill:#2E67B1;}
	.st2{fill:#98CB67;}
</style>
<rect class="st0" width="832" height="503"/>
<g>
	<g>
		<path class="st1" d="M193.14,88.27c0.08-0.57,0.3-0.97,0.69-1.22c0.39-0.25,0.76-0.37,1.12-0.37c4.82,0,9.35-0.16,13.57-0.48
			c4.22-0.32,7.53-0.48,9.95-0.48c6.03,0,11.08,0.6,15.16,1.81c4.08,1.2,7.38,3.08,9.9,5.64s4.31,5.85,5.37,9.9
			c1.06,4.04,1.6,8.9,1.6,14.57c0,5.74-0.59,11.36-1.76,16.86s-3.21,10.37-6.12,14.63c-2.91,4.25-6.82,7.68-11.75,10.27
			c-4.93,2.59-11.16,3.88-18.67,3.88c-3.47,0-6.65-0.07-9.52-0.21c-2.87-0.14-5.33-0.57-7.39-1.28c-2.05-0.71-3.65-1.77-4.79-3.19
			c-1.13-1.42-1.7-3.37-1.7-5.85c0-0.92,0.05-2.3,0.16-4.15c0.1-1.84,0.25-4.04,0.42-6.59c0.18-2.55,0.39-5.38,0.64-8.46
			c0.25-3.09,0.51-6.33,0.8-9.73c0.57-7.02,1.01-12.62,1.33-16.81c0.32-4.18,0.53-7.46,0.63-9.84c0.11-2.38,0.18-4.17,0.22-5.37
			C193.02,90.57,193.07,89.4,193.14,88.27z M212.93,146.46c3.97,0,7.14-0.85,9.52-2.55c2.37-1.7,4.2-3.87,5.48-6.49
			c1.27-2.62,2.12-5.5,2.55-8.62c0.42-3.12,0.63-6.06,0.63-8.83c0-2.98-0.19-5.58-0.58-7.82c-0.39-2.23-1.06-4.09-2.03-5.58
			c-0.95-1.49-2.29-2.61-3.99-3.35c-1.7-0.74-3.83-1.12-6.38-1.12c-0.78,0-1.77,0.03-2.98,0.1c-1.2,0.07-2.66,0.18-4.36,0.32
			c-0.14,2.62-0.32,5.73-0.53,9.31c-0.22,3.58-0.44,7.34-0.69,11.28c-0.25,3.94-0.52,7.91-0.8,11.92
			c-0.29,4.01-0.57,7.71-0.85,11.12c1.06,0.14,2.02,0.23,2.87,0.26C211.65,146.44,212.36,146.46,212.93,146.46z"/>
		<path class="st1" d="M283.14,163.27c-3.12,0-6.22-0.39-9.31-1.17c-3.08-0.78-5.85-2.13-8.29-4.04c-2.45-1.92-4.46-4.47-6.02-7.66
			c-1.56-3.19-2.34-7.2-2.34-12.02c0-1.77,0.14-3.9,0.42-6.38c0.29-2.48,0.83-5.03,1.65-7.66c0.81-2.62,1.95-5.23,3.4-7.82
			c1.45-2.59,3.35-4.91,5.69-6.97c2.35-2.06,5.18-3.72,8.51-5s7.31-1.92,11.92-1.92c3.68,0,6.8,0.43,9.36,1.28
			c2.55,0.85,4.61,2,6.17,3.46c1.56,1.45,2.69,3.14,3.4,5.05c0.71,1.92,1.06,3.97,1.06,6.17c0,3.26-0.66,6.03-1.97,8.3
			c-1.31,2.27-3.01,4.16-5.1,5.69c-2.1,1.52-4.42,2.71-6.97,3.56c-2.55,0.85-5.07,1.51-7.56,1.97c-2.48,0.46-4.77,0.74-6.86,0.85
			c-2.1,0.11-3.71,0.16-4.84,0.16c0,1.35,0.19,2.68,0.58,3.99c0.39,1.31,0.98,2.46,1.76,3.45c0.78,1,1.81,1.81,3.08,2.45
			c1.28,0.64,2.84,0.96,4.68,0.96s3.28-0.3,4.31-0.9c1.02-0.6,1.86-1.28,2.49-2.02c0.64-0.74,1.19-1.42,1.65-2.02
			c0.46-0.6,1.08-0.9,1.86-0.9c0.35,0,0.97,0.09,1.86,0.27c0.88,0.18,1.79,0.55,2.71,1.12c0.93,0.57,1.74,1.35,2.45,2.34
			c0.71,1,1.06,2.27,1.06,3.83c0,2.06-0.64,3.83-1.91,5.32c-1.28,1.49-2.93,2.7-4.95,3.61c-2.02,0.92-4.27,1.6-6.75,2.02
			C287.89,163.05,285.48,163.27,283.14,163.27z M285.16,116.78c-1.56,0-2.89,0.45-3.99,1.33c-1.1,0.89-2.02,2-2.76,3.35
			c-0.74,1.35-1.32,2.84-1.71,4.47c-0.39,1.63-0.69,3.19-0.91,4.68c4.4-0.07,7.96-0.81,10.69-2.23c2.74-1.42,4.09-3.44,4.09-6.06
			c0-1.42-0.44-2.69-1.32-3.83C288.36,117.35,287.01,116.78,285.16,116.78z"/>
		<path class="st1" d="M351.43,152.84c0-1.56,0.12-3.6,0.37-6.12c0.25-2.51,0.49-5.18,0.74-7.98c0.25-2.8,0.49-5.51,0.74-8.14
			c0.25-2.62,0.37-4.82,0.37-6.6c0-1.84-0.44-3.49-1.33-4.95c-0.88-1.45-2.61-2.18-5.16-2.18c-2.48,0-4.54,0.6-6.16,1.81
			c-1.64,1.21-3,3.41-4.09,6.6c-1.1,3.19-2.01,7.59-2.72,13.19c-0.71,5.6-1.38,12.8-2.02,21.59c-0.07,0.85-0.25,1.42-0.54,1.71
			c-0.28,0.28-0.88,0.42-1.8,0.42h-3.84c-2.2,0-3.99-0.23-5.37-0.69c-1.39-0.46-2.48-1.12-3.3-1.97c-0.82-0.85-1.39-1.9-1.71-3.14
			c-0.32-1.24-0.48-2.68-0.48-4.31c0-1.06,0.05-2.57,0.16-4.52c0.11-1.95,0.3-4.64,0.59-8.09c0.28-3.44,0.61-7.8,1.01-13.09
			c0.38-5.28,0.87-11.83,1.43-19.63c0.08-1.56,0.25-2.48,0.54-2.77c0.21-0.21,0.78-0.32,1.7-0.32h4.16c2.12,0,3.88,0.25,5.26,0.74
			c1.39,0.5,2.5,1.16,3.35,1.97c0.85,0.81,1.45,1.77,1.81,2.87c0.35,1.1,0.56,2.22,0.64,3.35c2.2-3.76,4.71-6.37,7.55-7.82
			c2.84-1.45,6.38-2.18,10.64-2.18c2.98,0,5.57,0.32,7.77,0.96c2.2,0.64,4.03,1.72,5.48,3.24c1.45,1.53,2.54,3.51,3.25,5.96
			c0.7,2.45,1.06,5.48,1.06,9.1c0,1.13-0.07,2.77-0.21,4.89c-0.15,2.13-0.32,4.45-0.54,6.97c-0.21,2.52-0.44,5.14-0.68,7.87
			c-0.25,2.73-0.48,5.26-0.69,7.61c-0.22,2.34-0.39,4.4-0.54,6.17c-0.14,1.77-0.21,2.94-0.21,3.51c0,1.56-0.18,2.5-0.54,2.82
			c-0.35,0.32-1.13,0.48-2.34,0.48h-3.4c-2.28,0-4.12-0.21-5.53-0.64c-1.42-0.43-2.52-1.03-3.3-1.81c-0.78-0.78-1.33-1.76-1.65-2.93
			C351.59,155.66,351.43,154.33,351.43,152.84z"/>
		<path class="st1" d="M393.34,163.16c-4.4,0-7.55-1.17-9.46-3.51c-1.92-2.34-2.87-6.2-2.87-11.6c0-0.85,0.05-1.91,0.16-3.19
			c0.11-1.28,0.25-2.93,0.42-4.95c0.18-2.02,0.41-4.52,0.69-7.5c0.29-2.98,0.59-6.6,0.91-10.85c0.32-4.25,0.67-9.25,1.06-15
			c0.39-5.74,0.8-12.41,1.22-20c0.07-1.56,0.25-2.48,0.53-2.77c0.22-0.21,0.78-0.32,1.71-0.32h4.15c2.13,0,3.9,0.25,5.32,0.74
			c1.41,0.5,2.55,1.17,3.4,2.02c0.85,0.85,1.45,1.83,1.81,2.93c0.35,1.1,0.53,2.25,0.53,3.45c0,1.42-0.09,3.46-0.27,6.12
			c-0.17,2.66-0.41,5.66-0.68,8.99c-0.29,3.33-0.57,6.81-0.86,10.43c-0.29,3.61-0.56,7.07-0.85,10.37c-0.29,3.3-0.52,6.26-0.69,8.88
			c-0.17,2.62-0.27,4.61-0.27,5.96c0,1.84,0.34,3.16,1.01,3.93c0.68,0.78,1.4,1.33,2.18,1.65c0.78,0.32,1.51,0.53,2.18,0.64
			c0.68,0.1,1.01,0.34,1.01,0.69c0,1.56-0.18,3.1-0.54,4.63c-0.35,1.52-1,2.91-1.91,4.15c-0.93,1.24-2.18,2.23-3.77,2.98
			C397.86,162.79,395.82,163.16,393.34,163.16z"/>
		<path class="st1" d="M424.08,162.2c-2.2,0-3.98-0.23-5.37-0.69c-1.39-0.46-2.48-1.12-3.3-1.97c-0.81-0.85-1.39-1.9-1.71-3.14
			c-0.31-1.24-0.48-2.68-0.48-4.31c0-1.06,0.05-2.57,0.16-4.52c0.1-1.95,0.29-4.64,0.58-8.09c0.29-3.44,0.62-7.8,1.01-13.09
			c0.39-5.28,0.87-11.83,1.44-19.63c0.14-1.56,0.29-2.46,0.48-2.71c0.17-0.25,0.76-0.37,1.76-0.37h4.15c2.2,0,3.99,0.21,5.38,0.64
			c1.38,0.42,2.48,1.06,3.29,1.91c0.82,0.85,1.39,1.88,1.71,3.09c0.32,1.21,0.48,2.55,0.48,4.04c0,1.06-0.07,2.66-0.21,4.79
			c-0.15,2.13-0.34,5.02-0.59,8.67c-0.25,3.66-0.58,8.19-1.01,13.62c-0.42,5.43-0.95,11.97-1.59,19.63
			c-0.07,0.85-0.25,1.42-0.53,1.71c-0.29,0.28-0.89,0.42-1.81,0.42H424.08z M424.4,96.78c-0.49,0-1.05-0.18-1.64-0.53
			c-0.61-0.35-1.19-0.8-1.76-1.33c-0.57-0.53-1.05-1.1-1.44-1.71c-0.39-0.6-0.58-1.12-0.58-1.54c0-0.14,0.35-0.74,1.06-1.81
			c0.7-1.06,1.59-2.37,2.66-3.93c1.06-1.56,2.23-3.26,3.51-5.11c1.28-1.84,2.48-3.58,3.62-5.21c0.42-0.64,0.78-1.06,1.06-1.28
			s0.74-0.32,1.39-0.32c0.85,0,1.95,0.22,3.3,0.64c1.34,0.42,2.66,0.96,3.93,1.6c1.28,0.64,2.38,1.33,3.3,2.07
			c0.93,0.74,1.39,1.44,1.39,2.07c0,0.5-0.41,1.24-1.22,2.23c-0.82,1-1.86,2.1-3.14,3.3c-1.27,1.21-2.69,2.45-4.25,3.72
			c-1.57,1.28-3.09,2.45-4.58,3.51s-2.81,1.93-3.99,2.61C425.84,96.44,424.97,96.78,424.4,96.78z"/>
		<path class="st1" d="M479.3,152.84c0-1.56,0.12-3.6,0.37-6.12c0.25-2.51,0.49-5.18,0.74-7.98c0.25-2.8,0.49-5.51,0.74-8.14
			c0.25-2.62,0.37-4.82,0.37-6.6c0-1.84-0.44-3.49-1.33-4.95c-0.88-1.45-2.61-2.18-5.16-2.18c-2.48,0-4.54,0.6-6.16,1.81
			c-1.64,1.21-3,3.41-4.09,6.6c-1.1,3.19-2.01,7.59-2.72,13.19c-0.71,5.6-1.38,12.8-2.02,21.59c-0.07,0.85-0.25,1.42-0.54,1.71
			c-0.28,0.28-0.88,0.42-1.8,0.42h-3.84c-2.2,0-3.99-0.23-5.37-0.69c-1.39-0.46-2.48-1.12-3.3-1.97c-0.82-0.85-1.39-1.9-1.71-3.14
			c-0.32-1.24-0.48-2.68-0.48-4.31c0-1.06,0.05-2.57,0.16-4.52c0.11-1.95,0.3-4.64,0.59-8.09c0.28-3.44,0.61-7.8,1.01-13.09
			c0.38-5.28,0.87-11.83,1.43-19.63c0.08-1.56,0.25-2.48,0.54-2.77c0.21-0.21,0.78-0.32,1.7-0.32h4.16c2.12,0,3.88,0.25,5.26,0.74
			c1.39,0.5,2.5,1.16,3.35,1.97c0.85,0.81,1.45,1.77,1.81,2.87c0.35,1.1,0.56,2.22,0.64,3.35c2.2-3.76,4.71-6.37,7.55-7.82
			c2.84-1.45,6.38-2.18,10.64-2.18c2.98,0,5.57,0.32,7.77,0.96c2.2,0.64,4.03,1.72,5.48,3.24c1.45,1.53,2.54,3.51,3.25,5.96
			c0.7,2.45,1.06,5.48,1.06,9.1c0,1.13-0.07,2.77-0.21,4.89c-0.15,2.13-0.32,4.45-0.54,6.97c-0.21,2.52-0.44,5.14-0.68,7.87
			c-0.25,2.73-0.48,5.26-0.69,7.61c-0.22,2.34-0.39,4.4-0.54,6.17c-0.14,1.77-0.21,2.94-0.21,3.51c0,1.56-0.18,2.5-0.54,2.82
			c-0.35,0.32-1.13,0.48-2.34,0.48h-3.4c-2.28,0-4.12-0.21-5.53-0.64c-1.42-0.43-2.52-1.03-3.3-1.81c-0.78-0.78-1.33-1.76-1.65-2.93
			C479.45,155.66,479.3,154.33,479.3,152.84z"/>
		<path class="st1" d="M533.44,163.27c-3.12,0-6.22-0.39-9.31-1.17c-3.08-0.78-5.85-2.13-8.29-4.04c-2.45-1.92-4.46-4.47-6.02-7.66
			c-1.56-3.19-2.34-7.2-2.34-12.02c0-1.77,0.14-3.9,0.42-6.38c0.29-2.48,0.83-5.03,1.65-7.66c0.81-2.62,1.95-5.23,3.4-7.82
			c1.45-2.59,3.35-4.91,5.69-6.97c2.35-2.06,5.18-3.72,8.51-5c3.33-1.28,7.31-1.92,11.92-1.92c3.68,0,6.8,0.43,9.36,1.28
			c2.55,0.85,4.61,2,6.17,3.46c1.56,1.45,2.69,3.14,3.4,5.05c0.71,1.92,1.06,3.97,1.06,6.17c0,3.26-0.66,6.03-1.97,8.3
			c-1.31,2.27-3.01,4.16-5.1,5.69c-2.1,1.52-4.42,2.71-6.97,3.56c-2.55,0.85-5.07,1.51-7.56,1.97c-2.48,0.46-4.77,0.74-6.86,0.85
			c-2.1,0.11-3.71,0.16-4.84,0.16c0,1.35,0.19,2.68,0.58,3.99c0.39,1.31,0.98,2.46,1.76,3.45c0.78,1,1.81,1.81,3.08,2.45
			c1.28,0.64,2.84,0.96,4.68,0.96c1.84,0,3.28-0.3,4.31-0.9c1.02-0.6,1.86-1.28,2.49-2.02c0.64-0.74,1.19-1.42,1.65-2.02
			c0.46-0.6,1.08-0.9,1.86-0.9c0.35,0,0.97,0.09,1.86,0.27c0.88,0.18,1.79,0.55,2.71,1.12c0.93,0.57,1.74,1.35,2.45,2.34
			c0.71,1,1.06,2.27,1.06,3.83c0,2.06-0.64,3.83-1.91,5.32c-1.28,1.49-2.93,2.7-4.95,3.61c-2.02,0.92-4.27,1.6-6.75,2.02
			C538.19,163.05,535.78,163.27,533.44,163.27z M535.46,116.78c-1.56,0-2.89,0.45-3.99,1.33c-1.1,0.89-2.02,2-2.76,3.35
			c-0.74,1.35-1.32,2.84-1.71,4.47c-0.39,1.63-0.69,3.19-0.91,4.68c4.4-0.07,7.96-0.81,10.69-2.23c2.74-1.42,4.09-3.44,4.09-6.06
			c0-1.42-0.44-2.69-1.32-3.83C538.67,117.35,537.31,116.78,535.46,116.78z"/>
		<path class="st1" d="M598.11,173.8c-5.74,0-10.74-0.85-14.99-2.55c-4.26-1.7-7.79-4.09-10.59-7.18c-2.8-3.09-4.89-6.81-6.28-11.17
			c-1.39-4.36-2.08-9.17-2.08-14.41c0-5.96,0.89-11.53,2.67-16.7c1.77-5.18,4.48-9.68,8.14-13.51c3.64-3.83,8.24-6.83,13.77-8.99
			c5.53-2.16,12.02-3.24,19.47-3.24c6.8,0,12.46,0.89,16.97,2.66c4.5,1.77,8.08,4.13,10.74,7.07c2.66,2.94,4.54,6.32,5.64,10.11
			c1.1,3.8,1.64,7.71,1.64,11.76c0,3.83-0.44,7.39-1.32,10.69c-0.89,3.3-2.25,6.17-4.09,8.61c-1.84,2.45-4.21,4.36-7.08,5.74
			c-2.87,1.39-6.33,2.08-10.37,2.08c-1.63,0-3.17-0.13-4.62-0.37c-1.45-0.25-2.75-0.62-3.89-1.12c-1.13-0.5-2.02-1.15-2.66-1.97
			c-0.64-0.81-0.95-1.76-0.95-2.82c-1.35,1.7-2.91,3.16-4.68,4.36c-1.77,1.21-4.15,1.81-7.12,1.81c-3.77,0-6.74-1.29-8.94-3.88
			c-2.2-2.59-3.3-6.97-3.3-13.14c0-7.73,1.67-13.69,5-17.87c3.33-4.18,7.9-6.28,13.72-6.28c2.69,0,4.68,0.48,5.96,1.44
			c1.28,0.96,2.2,2.54,2.77,4.74c0-0.43,0.05-0.96,0.16-1.6c0.11-0.64,0.23-1.24,0.37-1.81c0.15-0.57,0.32-1.04,0.54-1.44
			c0.21-0.39,0.46-0.58,0.74-0.58h3.3c2.19,0,3.83,0.45,4.89,1.33c1.06,0.89,1.59,2.15,1.59,3.78c0,0.85-0.14,2.22-0.42,4.09
			c-0.29,1.88-0.59,3.92-0.9,6.12c-0.32,2.2-0.61,4.36-0.86,6.49c-0.25,2.13-0.37,3.87-0.37,5.22c0,0.28,0.02,0.65,0.05,1.12
			c0.03,0.46,0.16,0.92,0.37,1.38c0.22,0.46,0.54,0.85,0.96,1.17c0.42,0.32,1.03,0.48,1.81,0.48c1.2,0,2.27-0.44,3.19-1.33
			c0.92-0.89,1.68-2.07,2.29-3.57c0.6-1.49,1.05-3.19,1.32-5.1c0.29-1.92,0.43-3.9,0.43-5.96c0-3.33-0.43-6.37-1.28-9.1
			c-0.85-2.73-2.2-5.07-4.04-7.02c-1.84-1.95-4.25-3.45-7.23-4.52c-2.99-1.06-6.64-1.6-10.96-1.6c-5.6,0-10.35,0.87-14.26,2.61
			c-3.9,1.74-7.06,4.06-9.46,6.97c-2.42,2.91-4.16,6.24-5.21,10c-1.06,3.76-1.6,7.66-1.6,11.7c0,8.29,2.03,14.38,6.07,18.24
			c4.04,3.87,9.53,5.8,16.48,5.8c2.2,0,4.03-0.16,5.48-0.48c1.45-0.32,2.68-0.67,3.67-1.06c1-0.39,1.83-0.74,2.5-1.06
			c0.68-0.32,1.36-0.48,2.07-0.48c0.57,0,1,0.16,1.28,0.48c0.29,0.32,0.42,0.94,0.42,1.86c0,0.42-0.07,1.26-0.22,2.5
			c-0.14,1.24-0.56,2.5-1.27,3.78c-0.35,0.64-0.85,1.31-1.49,2.02c-0.64,0.71-1.54,1.33-2.71,1.86c-1.18,0.53-2.67,0.97-4.47,1.33
			C603.07,173.62,600.81,173.8,598.11,173.8z M605.35,123.05c-2.13,0-3.76,0.69-4.89,2.07c-1.14,1.39-1.97,2.93-2.5,4.63
			c-0.54,1.71-0.86,3.34-0.96,4.9s-0.16,2.52-0.16,2.87c0,2.7,0.39,4.63,1.17,5.8c0.78,1.17,1.98,1.75,3.62,1.75
			c1.56,0,2.88-0.48,3.99-1.44c1.09-0.96,2-2.18,2.71-3.67c0.71-1.49,1.2-3.12,1.49-4.9c0.29-1.77,0.42-3.44,0.42-5
			c0-2.34-0.35-4.09-1.06-5.26C608.47,123.64,607.2,123.05,605.35,123.05z"/>
	</g>
	<g>
		<path class="st1" d="M463.69,272.93h-22.46c-2.38-15.22-15.32-26.76-30.67-27.46c-0.42-0.04-0.85-0.04-1.29-0.04
			c-0.5,0-0.99,0.02-1.49,0.04c-15.36,0.69-28.29,12.24-30.67,27.46h-22.48c-0.5,0-0.97,0.02-1.47,0.08
			c-7.2,0.73-12.88,6.86-12.88,14.26V419.4c0,7.86,6.49,14.34,14.34,14.34h109.05c7.88,0,14.34-6.49,14.34-14.34V287.27
			C478.04,279.37,471.59,272.93,463.69,272.93z M408.34,256.32c0.3-0.02,0.62-0.02,0.93-0.02c0.24,0,0.5,0,0.73,0.02
			c9.68,0.32,18.05,7.18,20.33,16.61h-42.34C390.29,263.5,398.66,256.64,408.34,256.32z M467.34,422.85h-112.7
			c-1.9,0-3.45-1.53-3.45-3.45v-79.45h-0.18v-52.67c0-1.88,1.55-3.45,3.45-3.45h22.26v15.59c0,2.82,2.14,5.16,4.88,5.44
			c0.18,0.02,0.38,0.02,0.56,0.02c0.12,0,0.26,0,0.38-0.02c2.74-0.28,4.88-2.62,4.88-5.44v-15.59h43.53v15.59
			c0,2.82,2.12,5.16,4.88,5.44c0.18,0.02,0.36,0.02,0.56,0.02c0.12,0,0.24,0,0.36-0.02c2.76-0.28,4.9-2.62,4.9-5.44v-15.59h22.26
			c1.9,0,3.45,1.57,3.45,3.45V422.85z"/>
		<g>
			<g>
				<path class="st1" d="M507.76,345.9v34.07c0,3.49-3.62,6.33-8.05,6.33h-57.2c-4.45,0-8.07-2.84-8.07-6.33V345.9
					c0-3.49,3.62-6.31,8.07-6.31h57.2c4.1,0,7.55,2.4,7.99,5.61C507.74,345.4,507.76,345.66,507.76,345.9z"/>
			</g>
		</g>
		<g>
			<g>
				<path class="st2" d="M497.95,351.62v22.63c0,2.32-2.65,4.2-5.9,4.2h-41.91c-3.26,0-5.91-1.89-5.91-4.2v-22.63
					c0-2.32,2.65-4.19,5.91-4.19h41.91c3,0,5.53,1.59,5.86,3.73C497.94,351.29,497.95,351.46,497.95,351.62z"/>
			</g>
		</g>
	</g>
</g>
</svg>
