
{
  "header": {
    "reportVersion": 1,
    "event": "Allocation failed - JavaScript heap out of memory",
    "trigger": "FatalError",
    "filename": "report.20200102.112601.9656.0.001.json",
    "dumpEventTime": "2020-01-02T11:26:01Z",
    "dumpEventTimeStamp": "1577982361325",
    "processId": 9656,
    "cwd": "C:\\0TIENDA724\\0tienda724-frontend",
    "commandLine": [
      "node",
      "C:\\0TIENDA724\\0tienda724-frontend\\node_modules\\.bin\\\\..\\@angular\\cli\\bin\\ng",
      "build",
      "--prod",
      "--max_old_space_size=4096"
    ],
    "nodejsVersion": "v13.5.0",
    "wordSize": 64,
    "arch": "x64",
    "platform": "win32",
    "componentVersions": {
      "node": "13.5.0",
      "v8": "7.9.317.25-node.23",
      "uv": "1.34.0",
      "zlib": "1.2.11",
      "brotli": "1.0.7",
      "ares": "1.15.0",
      "modules": "79",
      "nghttp2": "1.40.0",
      "napi": "5",
      "llhttp": "2.0.1",
      "openssl": "1.1.1d",
      "cldr": "36.0",
      "icu": "65.1",
      "tz": "2019c",
      "unicode": "12.1"
    },
    "release": {
      "name": "node",
      "headersUrl": "https://nodejs.org/download/release/v13.5.0/node-v13.5.0-headers.tar.gz",
      "sourceUrl": "https://nodejs.org/download/release/v13.5.0/node-v13.5.0.tar.gz",
      "libUrl": "https://nodejs.org/download/release/v13.5.0/win-x64/node.lib"
    },
    "osName": "Windows_NT",
    "osRelease": "10.0.18363",
    "osVersion": "Windows 10 Pro",
    "osMachine": "x86_64",
    "cpus": [
      {
        "model": "AMD Ryzen 5 2600 Six-Core Processor            ",
        "speed": 3394,
        "user": 2460343,
        "nice": 0,
        "sys": 1480468,
        "idle": 25247203,
        "irq": 199640
      },
      {
        "model": "AMD Ryzen 5 2600 Six-Core Processor            ",
        "speed": 3394,
        "user": 1864875,
        "nice": 0,
        "sys": 506531,
        "idle": 26816406,
        "irq": 5265
      },
      {
        "model": "AMD Ryzen 5 2600 Six-Core Processor            ",
        "speed": 3394,
        "user": 2952218,
        "nice": 0,
        "sys": 953140,
        "idle": 25282468,
        "irq": 11531
      },
      {
        "model": "AMD Ryzen 5 2600 Six-Core Processor            ",
        "speed": 3394,
        "user": 1813046,
        "nice": 0,
        "sys": 374421,
        "idle": 27000343,
        "irq": 4015
      },
      {
        "model": "AMD Ryzen 5 2600 Six-Core Processor            ",
        "speed": 3394,
        "user": 2345937,
        "nice": 0,
        "sys": 670421,
        "idle": 26171468,
        "irq": 10140
      },
      {
        "model": "AMD Ryzen 5 2600 Six-Core Processor            ",
        "speed": 3394,
        "user": 1629671,
        "nice": 0,
        "sys": 568203,
        "idle": 26989953,
        "irq": 10109
      },
      {
        "model": "AMD Ryzen 5 2600 Six-Core Processor            ",
        "speed": 3394,
        "user": 3459062,
        "nice": 0,
        "sys": 758812,
        "idle": 24969953,
        "irq": 10390
      },
      {
        "model": "AMD Ryzen 5 2600 Six-Core Processor            ",
        "speed": 3394,
        "user": 1712812,
        "nice": 0,
        "sys": 396968,
        "idle": 27078046,
        "irq": 4406
      },
      {
        "model": "AMD Ryzen 5 2600 Six-Core Processor            ",
        "speed": 3394,
        "user": 2863000,
        "nice": 0,
        "sys": 875046,
        "idle": 25449781,
        "irq": 24968
      },
      {
        "model": "AMD Ryzen 5 2600 Six-Core Processor            ",
        "speed": 3394,
        "user": 1724203,
        "nice": 0,
        "sys": 524984,
        "idle": 26938640,
        "irq": 7781
      },
      {
        "model": "AMD Ryzen 5 2600 Six-Core Processor            ",
        "speed": 3394,
        "user": 2060531,
        "nice": 0,
        "sys": 856265,
        "idle": 26271031,
        "irq": 12109
      },
      {
        "model": "AMD Ryzen 5 2600 Six-Core Processor            ",
        "speed": 3394,
        "user": 2045578,
        "nice": 0,
        "sys": 722421,
        "idle": 26419828,
        "irq": 17640
      }
    ],
    "networkInterfaces": [
      {
        "name": "Ethernet",
        "internal": false,
        "mac": "70:85:c2:8f:94:bb",
        "address": "fe80::8ca7:1733:a1aa:a2d",
        "netmask": "ffff:ffff:ffff:ffff::",
        "family": "IPv6",
        "scopeid": 14
      },
      {
        "name": "Ethernet",
        "internal": false,
        "mac": "70:85:c2:8f:94:bb",
        "address": "192.168.0.20",
        "netmask": "255.255.255.0",
        "family": "IPv4"
      },
      {
        "name": "VirtualBox Host-Only Network",
        "internal": false,
        "mac": "0a:00:27:00:00:09",
        "address": "fe80::e07a:9e70:16ed:4b45",
        "netmask": "ffff:ffff:ffff:ffff::",
        "family": "IPv6",
        "scopeid": 9
      },
      {
        "name": "VirtualBox Host-Only Network",
        "internal": false,
        "mac": "0a:00:27:00:00:09",
        "address": "192.168.56.1",
        "netmask": "255.255.255.0",
        "family": "IPv4"
      },
      {
        "name": "Loopback Pseudo-Interface 1",
        "internal": true,
        "mac": "00:00:00:00:00:00",
        "address": "::1",
        "netmask": "ffff:ffff:ffff:ffff:ffff:ffff:ffff:ffff",
        "family": "IPv6",
        "scopeid": 0
      },
      {
        "name": "Loopback Pseudo-Interface 1",
        "internal": true,
        "mac": "00:00:00:00:00:00",
        "address": "127.0.0.1",
        "netmask": "255.0.0.0",
        "family": "IPv4"
      }
    ],
    "host": "DESKTOP-34UQRRU"
  },
  "javascriptStack": {
    "message": "No stack.",
    "stack": [
      "Unavailable."
    ]
  },
  "nativeStack": [
    {
      "pc": "0x00007ff7574a19f9",
      "symbol": "std::basic_ostream<char,std::char_traits<char> >::operator<<+10857"
    },
    {
      "pc": "0x00007ff7574a5d6c",
      "symbol": "std::basic_ostream<char,std::char_traits<char> >::operator<<+28124"
    },
    {
      "pc": "0x00007ff7574a4d28",
      "symbol": "std::basic_ostream<char,std::char_traits<char> >::operator<<+23960"
    },
    {
      "pc": "0x00007ff75759ddfb",
      "symbol": "v8::base::CPU::has_sse+39435"
    },
    {
      "pc": "0x00007ff757dc5c2e",
      "symbol": "v8::Isolate::ReportExternalAllocationLimitReached+94"
    },
    {
      "pc": "0x00007ff757dad381",
      "symbol": "v8::SharedArrayBuffer::Externalize+785"
    },
    {
      "pc": "0x00007ff757c746dc",
      "symbol": "v8::internal::Heap::EphemeronKeyWriteBarrierFromCode+1436"
    },
    {
      "pc": "0x00007ff757c7f9d0",
      "symbol": "v8::internal::Heap::ProtectUnprotectedMemoryChunks+1312"
    },
    {
      "pc": "0x00007ff757c7c4ff",
      "symbol": "v8::internal::Heap::PageFlagsAreConsistent+3151"
    },
    {
      "pc": "0x00007ff757c71c53",
      "symbol": "v8::internal::Heap::CollectGarbage+1283"
    },
    {
      "pc": "0x00007ff757c703e4",
      "symbol": "v8::internal::Heap::AllocateExternalBackingStore+1300"
    },
    {
      "pc": "0x00007ff757c923d4",
      "symbol": "v8::internal::Factory::NewFillerObject+196"
    },
    {
      "pc": "0x00007ff7579ec9d1",
      "symbol": "v8::internal::interpreter::JumpTableTargetOffsets::iterator::operator=+1681"
    },
    {
      "pc": "0x00007ff75820ebcd",
      "symbol": "v8::internal::SetupIsolateDelegate::SetupHeap+517453"
    },
    {
      "pc": "0x00000342d18a3b4c",
      "symbol": ""
    }
  ],
  "javascriptHeap": {
    "totalMemory": 2161905664,
    "totalCommittedMemory": 2161905664,
    "usedMemory": 2124741432,
    "availableMemory": 40609256,
    "memoryLimit": 2197815296,
    "heapSpaces": {
      "read_only_space": {
        "memorySize": 262144,
        "committedMemory": 262144,
        "capacity": 33040,
        "used": 33040,
        "available": 0
      },
      "new_space": {
        "memorySize": 2621440,
        "committedMemory": 2621440,
        "capacity": 1309280,
        "used": 586632,
        "available": 722648
      },
      "old_space": {
        "memorySize": 2057969664,
        "committedMemory": 2057969664,
        "capacity": 2052215512,
        "used": 2049547816,
        "available": 2667696
      },
      "code_space": {
        "memorySize": 4886528,
        "committedMemory": 4886528,
        "capacity": 4175136,
        "used": 4175136,
        "available": 0
      },
      "map_space": {
        "memorySize": 31723520,
        "committedMemory": 31723520,
        "capacity": 6394480,
        "used": 6394480,
        "available": 0
      },
      "large_object_space": {
        "memorySize": 63819776,
        "committedMemory": 63819776,
        "capacity": 63460040,
        "used": 63460040,
        "available": 0
      },
      "code_large_object_space": {
        "memorySize": 622592,
        "committedMemory": 622592,
        "capacity": 544288,
        "used": 544288,
        "available": 0
      },
      "new_large_object_space": {
        "memorySize": 0,
        "committedMemory": 0,
        "capacity": 1309280,
        "used": 0,
        "available": 1309280
      }
    }
  },
  "resourceUsage": {
    "userCpuSeconds": 166.515,
    "kernelCpuSeconds": 6.64,
    "cpuConsumptionPercent": 192.394,
    "maxRss": 2267504640,
    "pageFaults": {
      "IORequired": 1394475,
      "IONotRequired": 0
    },
    "fsActivity": {
      "reads": 7131,
      "writes": 285
    }
  },
  "libuv": [
  ],
  "environmentVariables": {
    "=C:": "C:\\0TIENDA724\\0tienda724-frontend",
    "CLI_ROOT": "C:\\0TIENDA724\\0tienda724-frontend\\node_modules\\@angular\\cli",
    "PROMPT": "$P$G",
    "PWD": "C:\\0TIENDA724\\0tienda724-frontend",
    "SystemDrive": "C:",
    "PSModulePath": "C:\\Program Files\\WindowsPowerShell\\Modules;C:\\windows\\system32\\WindowsPowerShell\\v1.0\\Modules",
    "OS": "Windows_NT",
    "IDEA_INITIAL_DIRECTORY": "C:\\Program Files\\JetBrains\\WebStorm 2019.3.1\\bin",
    "ANT_HOME": "C:\\NVPACK\\apache-ant-1.8.2",
    "LOCALAPPDATA": "C:\\Users\\Sergio\\AppData\\Local",
    "USERNAME": "Sergio",
    "DriverData": "C:\\Windows\\System32\\Drivers\\DriverData",
    "HOMEDRIVE": "C:",
    "CommonProgramFiles": "C:\\Program Files\\Common Files",
    "ProgramFiles": "C:\\Program Files",
    "__INTELLIJ_COMMAND_HISTFILE__": "C:\\Users\\Sergio\\.WebStorm2019.3\\config\\terminal\\history\\history-",
    "APPDATA": "C:\\Users\\Sergio\\AppData\\Roaming",
    "COMPUTERNAME": "DESKTOP-34UQRRU",
    "SESSIONNAME": "Console",
    "NVPACK_NDK_TOOL_VERSION": "4.9",
    "VBOX_MSI_INSTALL_PATH": "C:\\Program Files\\Oracle\\VirtualBox\\",
    "CommonProgramW6432": "C:\\Program Files\\Common Files",
    "USERPROFILE": "C:\\Users\\Sergio",
    "ProgramFiles(x86)": "C:\\Program Files (x86)",
    "NDK_ROOT": "C:\\NVPACK\\android-ndk-r14b",
    "PROCESSOR_IDENTIFIER": "AMD64 Family 23 Model 8 Stepping 2, AuthenticAMD",
    "NVPACK_NDK_VERSION": "android-ndk-r14b",
    "NDKROOT": "C:\\NVPACK\\android-ndk-r14b",
    "ProgramW6432": "C:\\Program Files",
    "TERMINAL_EMULATOR": "JetBrains-JediTerm",
    "windir": "C:\\windows",
    "ComSpec": "C:\\windows\\system32\\cmd.exe",
    "LOGONSERVER": "\\\\DESKTOP-34UQRRU",
    "TEMP": "C:\\Users\\Sergio\\AppData\\Local\\Temp",
    "=::": "::\\",
    "PATHEXT": ".COM;.EXE;.BAT;.CMD;.VBS;.VBE;.JSE;.WSF;.WSH;.MSC",
    "ProgramData": "C:\\ProgramData",
    "HOMEPATH": "\\Users\\Sergio",
    "PROCESSOR_REVISION": "0802",
    "ANDROID_NDK_ROOT": "C:\\NVPACK\\android-ndk-r14b",
    "FPS_BROWSER_USER_PROFILE_STRING": "Default",
    "NVPACK_ROOT": "C:\\\\NVPACK",
    "SystemRoot": "C:\\windows",
    "USERDOMAIN": "DESKTOP-34UQRRU",
    "OneDrive": "C:\\Users\\Sergio\\OneDrive",
    "PROCESSOR_LEVEL": "23",
    "JAVA_HOME": "C:\\NVPACK\\jdk1.8.0_77",
    "ANDROID_HOME": "C:\\NVPACK\\android-sdk-windows",
    "NUMBER_OF_PROCESSORS": "12",
    "FPS_BROWSER_APP_PROFILE_STRING": "Internet Explorer",
    "CommonProgramFiles(x86)": "C:\\Program Files (x86)\\Common Files",
    "TMP": "C:\\Users\\Sergio\\AppData\\Local\\Temp",
    "PATH": "C:\\0TIENDA724\\0tienda724-frontend\\node_modules\\.bin;C:\\Program Files (x86)\\Common Files\\Oracle\\Java\\javapath;C:\\windows\\system32;C:\\windows;C:\\windows\\System32\\Wbem;C:\\windows\\System32\\WindowsPowerShell\\v1.0\\;C:\\windows\\System32\\OpenSSH\\;C:\\Program Files\\Git\\cmd;C:\\Program Files\\nodejs\\;C:\\Users\\Sergio\\.gradle\\wrapper\\dists\\gradle-5.4.1-all\\3221gyojl5jsh0helicew7rwx\\gradle-5.4.1\\bin;C:\\Program Files\\Java\\jdk1.8.0_231\\bin;C:\\Users\\Sergio\\AppData\\Local\\Android\\Sdk\\build-tools\\29.0.2;C:\\Users\\Sergio\\AppData\\Local\\Android\\Sdk\\platform-tools;C:\\NVPACK\\android-sdk-windows\\extras\\android\\support;C:\\NVPACK\\android-sdk-windows\\build-tools;C:\\NVPACK\\android-sdk-windows\\platform-tools;C:\\NVPACK\\android-sdk-windows\\tools;C:\\NVPACK\\gradle-4.1\\bin;C:\\NVPACK\\apache-ant-1.8.2\\bin;C:\\NVPACK\\jdk1.8.0_77\\bin;\r\r\r\r\r\r\r",
    "USERDOMAIN_ROAMINGPROFILE": "DESKTOP-34UQRRU",
    "PUBLIC": "C:\\Users\\Public",
    "GRADLE_HOME": "C:\\NVPACK\\gradle-4.1",
    "ALLUSERSPROFILE": "C:\\ProgramData",
    "PROCESSOR_ARCHITECTURE": "AMD64"
  },
  "sharedObjects": [
    "C:\\Program Files\\nodejs\\node.exe",
    "C:\\windows\\SYSTEM32\\ntdll.dll",
    "C:\\windows\\System32\\KERNEL32.DLL",
    "C:\\windows\\System32\\KERNELBASE.dll",
    "C:\\windows\\System32\\WS2_32.dll",
    "C:\\windows\\System32\\RPCRT4.dll",
    "C:\\windows\\SYSTEM32\\dbghelp.dll",
    "C:\\windows\\System32\\PSAPI.DLL",
    "C:\\windows\\System32\\ucrtbase.dll",
    "C:\\windows\\System32\\ADVAPI32.dll",
    "C:\\windows\\System32\\msvcrt.dll",
    "C:\\windows\\SYSTEM32\\IPHLPAPI.DLL",
    "C:\\windows\\System32\\sechost.dll",
    "C:\\windows\\SYSTEM32\\USERENV.dll",
    "C:\\windows\\System32\\profapi.dll",
    "C:\\windows\\System32\\USER32.dll",
    "C:\\windows\\System32\\win32u.dll",
    "C:\\windows\\System32\\GDI32.dll",
    "C:\\windows\\System32\\gdi32full.dll",
    "C:\\windows\\System32\\msvcp_win.dll",
    "C:\\windows\\System32\\CRYPT32.dll",
    "C:\\windows\\System32\\MSASN1.dll",
    "C:\\windows\\System32\\bcrypt.dll",
    "C:\\windows\\SYSTEM32\\WINMM.dll",
    "C:\\windows\\SYSTEM32\\winmmbase.dll",
    "C:\\windows\\System32\\cfgmgr32.dll",
    "C:\\windows\\System32\\bcryptPrimitives.dll",
    "C:\\windows\\System32\\IMM32.DLL",
    "C:\\windows\\System32\\powrprof.dll",
    "C:\\windows\\System32\\UMPDC.dll",
    "C:\\windows\\SYSTEM32\\CRYPTBASE.DLL",
    "C:\\windows\\system32\\uxtheme.dll",
    "C:\\windows\\System32\\combase.dll",
    "C:\\windows\\system32\\mswsock.dll",
    "C:\\windows\\System32\\kernel.appcore.dll",
    "C:\\windows\\System32\\NSI.dll",
    "C:\\windows\\SYSTEM32\\dhcpcsvc6.DLL",
    "C:\\windows\\SYSTEM32\\dhcpcsvc.DLL",
    "C:\\windows\\SYSTEM32\\DNSAPI.dll",
    "\\\\?\\C:\\0TIENDA724\\0tienda724-frontend\\node_modules\\node-sass\\vendor\\win32-x64-79\\binding.node",
    "C:\\windows\\system32\\napinsp.dll",
    "C:\\windows\\system32\\pnrpnsp.dll",
    "C:\\windows\\System32\\winrnr.dll",
    "C:\\windows\\system32\\NLAapi.dll",
    "C:\\windows\\system32\\wshbth.dll"
  ]
}