
{
  "header": {
    "reportVersion": 1,
    "event": "Allocation failed - JavaScript heap out of memory",
    "trigger": "FatalError",
    "filename": "report.20200102.111729.4640.0.001.json",
    "dumpEventTime": "2020-01-02T11:17:29Z",
    "dumpEventTimeStamp": "1577981849734",
    "processId": 4640,
    "cwd": "C:\\0TIENDA724\\0tienda724-frontend",
    "commandLine": [
      "node",
      "C:\\0TIENDA724\\0tienda724-frontend\\node_modules\\.bin\\\\..\\@angular\\cli\\bin\\ng",
      "build",
      "--prod"
    ],
    "nodejsVersion": "v13.5.0",
    "wordSize": 64,
    "arch": "x64",
    "platform": "win32",
    "componentVersions": {
      "node": "13.5.0",
      "v8": "7.9.317.25-node.23",
      "uv": "1.34.0",
      "zlib": "1.2.11",
      "brotli": "1.0.7",
      "ares": "1.15.0",
      "modules": "79",
      "nghttp2": "1.40.0",
      "napi": "5",
      "llhttp": "2.0.1",
      "openssl": "1.1.1d",
      "cldr": "36.0",
      "icu": "65.1",
      "tz": "2019c",
      "unicode": "12.1"
    },
    "release": {
      "name": "node",
      "headersUrl": "https://nodejs.org/download/release/v13.5.0/node-v13.5.0-headers.tar.gz",
      "sourceUrl": "https://nodejs.org/download/release/v13.5.0/node-v13.5.0.tar.gz",
      "libUrl": "https://nodejs.org/download/release/v13.5.0/win-x64/node.lib"
    },
    "osName": "Windows_NT",
    "osRelease": "10.0.18363",
    "osVersion": "Windows 10 Pro",
    "osMachine": "x86_64",
    "cpus": [
      {
        "model": "AMD Ryzen 5 2600 Six-Core Processor            ",
        "speed": 3394,
        "user": 2405656,
        "nice": 0,
        "sys": 1463421,
        "idle": 24807343,
        "irq": 196765
      },
      {
        "model": "AMD Ryzen 5 2600 Six-Core Processor            ",
        "speed": 3394,
        "user": 1841125,
        "nice": 0,
        "sys": 502656,
        "idle": 26332453,
        "irq": 5250
      },
      {
        "model": "AMD Ryzen 5 2600 Six-Core Processor            ",
        "speed": 3394,
        "user": 2827937,
        "nice": 0,
        "sys": 939234,
        "idle": 24909062,
        "irq": 11296
      },
      {
        "model": "AMD Ryzen 5 2600 Six-Core Processor            ",
        "speed": 3394,
        "user": 1795718,
        "nice": 0,
        "sys": 370921,
        "idle": 26509593,
        "irq": 3875
      },
      {
        "model": "AMD Ryzen 5 2600 Six-Core Processor            ",
        "speed": 3394,
        "user": 2303265,
        "nice": 0,
        "sys": 662453,
        "idle": 25710515,
        "irq": 10015
      },
      {
        "model": "AMD Ryzen 5 2600 Six-Core Processor            ",
        "speed": 3394,
        "user": 1602578,
        "nice": 0,
        "sys": 563265,
        "idle": 26510390,
        "irq": 10031
      },
      {
        "model": "AMD Ryzen 5 2600 Six-Core Processor            ",
        "speed": 3394,
        "user": 3400421,
        "nice": 0,
        "sys": 748359,
        "idle": 24527453,
        "irq": 10203
      },
      {
        "model": "AMD Ryzen 5 2600 Six-Core Processor            ",
        "speed": 3394,
        "user": 1690906,
        "nice": 0,
        "sys": 394328,
        "idle": 26591000,
        "irq": 4359
      },
      {
        "model": "AMD Ryzen 5 2600 Six-Core Processor            ",
        "speed": 3394,
        "user": 2757500,
        "nice": 0,
        "sys": 863296,
        "idle": 25055437,
        "irq": 24703
      },
      {
        "model": "AMD Ryzen 5 2600 Six-Core Processor            ",
        "speed": 3394,
        "user": 1711812,
        "nice": 0,
        "sys": 522515,
        "idle": 26441906,
        "irq": 7750
      },
      {
        "model": "AMD Ryzen 5 2600 Six-Core Processor            ",
        "speed": 3394,
        "user": 2019218,
        "nice": 0,
        "sys": 846484,
        "idle": 25810531,
        "irq": 11937
      },
      {
        "model": "AMD Ryzen 5 2600 Six-Core Processor            ",
        "speed": 3394,
        "user": 2020125,
        "nice": 0,
        "sys": 714187,
        "idle": 25941921,
        "irq": 17406
      }
    ],
    "networkInterfaces": [
      {
        "name": "Ethernet",
        "internal": false,
        "mac": "70:85:c2:8f:94:bb",
        "address": "fe80::8ca7:1733:a1aa:a2d",
        "netmask": "ffff:ffff:ffff:ffff::",
        "family": "IPv6",
        "scopeid": 14
      },
      {
        "name": "Ethernet",
        "internal": false,
        "mac": "70:85:c2:8f:94:bb",
        "address": "192.168.0.20",
        "netmask": "255.255.255.0",
        "family": "IPv4"
      },
      {
        "name": "VirtualBox Host-Only Network",
        "internal": false,
        "mac": "0a:00:27:00:00:09",
        "address": "fe80::e07a:9e70:16ed:4b45",
        "netmask": "ffff:ffff:ffff:ffff::",
        "family": "IPv6",
        "scopeid": 9
      },
      {
        "name": "VirtualBox Host-Only Network",
        "internal": false,
        "mac": "0a:00:27:00:00:09",
        "address": "192.168.56.1",
        "netmask": "255.255.255.0",
        "family": "IPv4"
      },
      {
        "name": "Loopback Pseudo-Interface 1",
        "internal": true,
        "mac": "00:00:00:00:00:00",
        "address": "::1",
        "netmask": "ffff:ffff:ffff:ffff:ffff:ffff:ffff:ffff",
        "family": "IPv6",
        "scopeid": 0
      },
      {
        "name": "Loopback Pseudo-Interface 1",
        "internal": true,
        "mac": "00:00:00:00:00:00",
        "address": "127.0.0.1",
        "netmask": "255.0.0.0",
        "family": "IPv4"
      }
    ],
    "host": "DESKTOP-34UQRRU"
  },
  "javascriptStack": {
    "message": "No stack.",
    "stack": [
      "Unavailable."
    ]
  },
  "nativeStack": [
    {
      "pc": "0x00007ff7574a19f9",
      "symbol": "std::basic_ostream<char,std::char_traits<char> >::operator<<+10857"
    },
    {
      "pc": "0x00007ff7574a5d6c",
      "symbol": "std::basic_ostream<char,std::char_traits<char> >::operator<<+28124"
    },
    {
      "pc": "0x00007ff7574a4d28",
      "symbol": "std::basic_ostream<char,std::char_traits<char> >::operator<<+23960"
    },
    {
      "pc": "0x00007ff75759ddfb",
      "symbol": "v8::base::CPU::has_sse+39435"
    },
    {
      "pc": "0x00007ff757dc5c2e",
      "symbol": "v8::Isolate::ReportExternalAllocationLimitReached+94"
    },
    {
      "pc": "0x00007ff757dad381",
      "symbol": "v8::SharedArrayBuffer::Externalize+785"
    },
    {
      "pc": "0x00007ff757c746dc",
      "symbol": "v8::internal::Heap::EphemeronKeyWriteBarrierFromCode+1436"
    },
    {
      "pc": "0x00007ff757c7f9d0",
      "symbol": "v8::internal::Heap::ProtectUnprotectedMemoryChunks+1312"
    },
    {
      "pc": "0x00007ff757c7c4ff",
      "symbol": "v8::internal::Heap::PageFlagsAreConsistent+3151"
    },
    {
      "pc": "0x00007ff757c71c53",
      "symbol": "v8::internal::Heap::CollectGarbage+1283"
    },
    {
      "pc": "0x00007ff757c71024",
      "symbol": "v8::internal::Heap::CollectAllAvailableGarbage+196"
    },
    {
      "pc": "0x00007ff757c70464",
      "symbol": "v8::internal::Heap::AllocateExternalBackingStore+1428"
    },
    {
      "pc": "0x00007ff757c9989c",
      "symbol": "v8::internal::Factory::NewRawTwoByteString+220"
    },
    {
      "pc": "0x00007ff757ab56ac",
      "symbol": "v8::internal::String::SlowFlatten+492"
    },
    {
      "pc": "0x00007ff757975fef",
      "symbol": "unibrow::Utf8::EncodeOneByte+687"
    },
    {
      "pc": "0x00007ff7579b0b0f",
      "symbol": "v8::internal::StubCache::value_reference+7487"
    },
    {
      "pc": "0x00007ff75820ebcd",
      "symbol": "v8::internal::SetupIsolateDelegate::SetupHeap+517453"
    },
    {
      "pc": "0x000000360423b87b",
      "symbol": ""
    }
  ],
  "javascriptHeap": {
    "totalMemory": 2166362112,
    "totalCommittedMemory": 2166362112,
    "usedMemory": 2132154024,
    "availableMemory": 35810496,
    "memoryLimit": 2197815296,
    "heapSpaces": {
      "read_only_space": {
        "memorySize": 262144,
        "committedMemory": 262144,
        "capacity": 33040,
        "used": 33040,
        "available": 0
      },
      "new_space": {
        "memorySize": 4194304,
        "committedMemory": 4194304,
        "capacity": 2094848,
        "used": 0,
        "available": 2094848
      },
      "old_space": {
        "memorySize": 2060591104,
        "committedMemory": 2060591104,
        "capacity": 2051833072,
        "used": 2051833072,
        "available": 0
      },
      "code_space": {
        "memorySize": 5148672,
        "committedMemory": 5148672,
        "capacity": 4473600,
        "used": 4305984,
        "available": 167616
      },
      "map_space": {
        "memorySize": 31723520,
        "committedMemory": 31723520,
        "capacity": 11977600,
        "used": 11977600,
        "available": 0
      },
      "large_object_space": {
        "memorySize": 63819776,
        "committedMemory": 63819776,
        "capacity": 63460040,
        "used": 63460040,
        "available": 0
      },
      "code_large_object_space": {
        "memorySize": 622592,
        "committedMemory": 622592,
        "capacity": 544288,
        "used": 544288,
        "available": 0
      },
      "new_large_object_space": {
        "memorySize": 0,
        "committedMemory": 0,
        "capacity": 2094848,
        "used": 0,
        "available": 2094848
      }
    }
  },
  "resourceUsage": {
    "userCpuSeconds": 206.75,
    "kernelCpuSeconds": 8.531,
    "cpuConsumptionPercent": 193.947,
    "maxRss": 2277548032,
    "pageFaults": {
      "IORequired": 2154254,
      "IONotRequired": 0
    },
    "fsActivity": {
      "reads": 7125,
      "writes": 285
    }
  },
  "libuv": [
  ],
  "environmentVariables": {
    "=C:": "C:\\0TIENDA724\\0tienda724-frontend",
    "CLI_ROOT": "C:\\0TIENDA724\\0tienda724-frontend\\node_modules\\@angular\\cli",
    "PROMPT": "$P$G",
    "PWD": "C:\\0TIENDA724\\0tienda724-frontend",
    "SystemDrive": "C:",
    "PSModulePath": "C:\\Program Files\\WindowsPowerShell\\Modules;C:\\windows\\system32\\WindowsPowerShell\\v1.0\\Modules",
    "OS": "Windows_NT",
    "IDEA_INITIAL_DIRECTORY": "C:\\Program Files\\JetBrains\\WebStorm 2019.3.1\\bin",
    "ANT_HOME": "C:\\NVPACK\\apache-ant-1.8.2",
    "LOCALAPPDATA": "C:\\Users\\Sergio\\AppData\\Local",
    "USERNAME": "Sergio",
    "DriverData": "C:\\Windows\\System32\\Drivers\\DriverData",
    "HOMEDRIVE": "C:",
    "CommonProgramFiles": "C:\\Program Files\\Common Files",
    "ProgramFiles": "C:\\Program Files",
    "__INTELLIJ_COMMAND_HISTFILE__": "C:\\Users\\Sergio\\.WebStorm2019.3\\config\\terminal\\history\\history-11",
    "APPDATA": "C:\\Users\\Sergio\\AppData\\Roaming",
    "COMPUTERNAME": "DESKTOP-34UQRRU",
    "SESSIONNAME": "Console",
    "NVPACK_NDK_TOOL_VERSION": "4.9",
    "VBOX_MSI_INSTALL_PATH": "C:\\Program Files\\Oracle\\VirtualBox\\",
    "CommonProgramW6432": "C:\\Program Files\\Common Files",
    "USERPROFILE": "C:\\Users\\Sergio",
    "ProgramFiles(x86)": "C:\\Program Files (x86)",
    "NDK_ROOT": "C:\\NVPACK\\android-ndk-r14b",
    "PROCESSOR_IDENTIFIER": "AMD64 Family 23 Model 8 Stepping 2, AuthenticAMD",
    "NVPACK_NDK_VERSION": "android-ndk-r14b",
    "NDKROOT": "C:\\NVPACK\\android-ndk-r14b",
    "ProgramW6432": "C:\\Program Files",
    "TERMINAL_EMULATOR": "JetBrains-JediTerm",
    "windir": "C:\\windows",
    "ComSpec": "C:\\windows\\system32\\cmd.exe",
    "LOGONSERVER": "\\\\DESKTOP-34UQRRU",
    "TEMP": "C:\\Users\\Sergio\\AppData\\Local\\Temp",
    "=::": "::\\",
    "PATHEXT": ".COM;.EXE;.BAT;.CMD;.VBS;.VBE;.JSE;.WSF;.WSH;.MSC",
    "ProgramData": "C:\\ProgramData",
    "HOMEPATH": "\\Users\\Sergio",
    "PROCESSOR_REVISION": "0802",
    "ANDROID_NDK_ROOT": "C:\\NVPACK\\android-ndk-r14b",
    "FPS_BROWSER_USER_PROFILE_STRING": "Default",
    "NVPACK_ROOT": "C:\\\\NVPACK",
    "SystemRoot": "C:\\windows",
    "USERDOMAIN": "DESKTOP-34UQRRU",
    "OneDrive": "C:\\Users\\Sergio\\OneDrive",
    "PROCESSOR_LEVEL": "23",
    "JAVA_HOME": "C:\\NVPACK\\jdk1.8.0_77",
    "ANDROID_HOME": "C:\\NVPACK\\android-sdk-windows",
    "NUMBER_OF_PROCESSORS": "12",
    "FPS_BROWSER_APP_PROFILE_STRING": "Internet Explorer",
    "CommonProgramFiles(x86)": "C:\\Program Files (x86)\\Common Files",
    "TMP": "C:\\Users\\Sergio\\AppData\\Local\\Temp",
    "PATH": "C:\\0TIENDA724\\0tienda724-frontend\\node_modules\\.bin;C:\\Program Files (x86)\\Common Files\\Oracle\\Java\\javapath;C:\\windows\\system32;C:\\windows;C:\\windows\\System32\\Wbem;C:\\windows\\System32\\WindowsPowerShell\\v1.0\\;C:\\windows\\System32\\OpenSSH\\;C:\\Program Files\\Git\\cmd;C:\\Program Files\\nodejs\\;C:\\Users\\Sergio\\.gradle\\wrapper\\dists\\gradle-5.4.1-all\\3221gyojl5jsh0helicew7rwx\\gradle-5.4.1\\bin;C:\\Program Files\\Java\\jdk1.8.0_231\\bin;C:\\Users\\Sergio\\AppData\\Local\\Android\\Sdk\\build-tools\\29.0.2;C:\\Users\\Sergio\\AppData\\Local\\Android\\Sdk\\platform-tools;C:\\NVPACK\\android-sdk-windows\\extras\\android\\support;C:\\NVPACK\\android-sdk-windows\\build-tools;C:\\NVPACK\\android-sdk-windows\\platform-tools;C:\\NVPACK\\android-sdk-windows\\tools;C:\\NVPACK\\gradle-4.1\\bin;C:\\NVPACK\\apache-ant-1.8.2\\bin;C:\\NVPACK\\jdk1.8.0_77\\bin;\r\r\r\r\r\r\r",
    "USERDOMAIN_ROAMINGPROFILE": "DESKTOP-34UQRRU",
    "PUBLIC": "C:\\Users\\Public",
    "GRADLE_HOME": "C:\\NVPACK\\gradle-4.1",
    "ALLUSERSPROFILE": "C:\\ProgramData",
    "PROCESSOR_ARCHITECTURE": "AMD64"
  },
  "sharedObjects": [
    "C:\\Program Files\\nodejs\\node.exe",
    "C:\\windows\\SYSTEM32\\ntdll.dll",
    "C:\\windows\\System32\\KERNEL32.DLL",
    "C:\\windows\\System32\\KERNELBASE.dll",
    "C:\\windows\\System32\\WS2_32.dll",
    "C:\\windows\\System32\\RPCRT4.dll",
    "C:\\windows\\SYSTEM32\\dbghelp.dll",
    "C:\\windows\\System32\\ucrtbase.dll",
    "C:\\windows\\System32\\PSAPI.DLL",
    "C:\\windows\\System32\\ADVAPI32.dll",
    "C:\\windows\\System32\\msvcrt.dll",
    "C:\\windows\\SYSTEM32\\IPHLPAPI.DLL",
    "C:\\windows\\SYSTEM32\\USERENV.dll",
    "C:\\windows\\System32\\sechost.dll",
    "C:\\windows\\System32\\profapi.dll",
    "C:\\windows\\System32\\USER32.dll",
    "C:\\windows\\System32\\win32u.dll",
    "C:\\windows\\System32\\GDI32.dll",
    "C:\\windows\\System32\\gdi32full.dll",
    "C:\\windows\\System32\\msvcp_win.dll",
    "C:\\windows\\System32\\CRYPT32.dll",
    "C:\\windows\\System32\\MSASN1.dll",
    "C:\\windows\\System32\\bcrypt.dll",
    "C:\\windows\\SYSTEM32\\WINMM.dll",
    "C:\\windows\\SYSTEM32\\winmmbase.dll",
    "C:\\windows\\System32\\cfgmgr32.dll",
    "C:\\windows\\System32\\bcryptPrimitives.dll",
    "C:\\windows\\System32\\IMM32.DLL",
    "C:\\windows\\System32\\powrprof.dll",
    "C:\\windows\\System32\\UMPDC.dll",
    "C:\\windows\\SYSTEM32\\CRYPTBASE.DLL",
    "C:\\windows\\system32\\uxtheme.dll",
    "C:\\windows\\System32\\combase.dll",
    "C:\\windows\\system32\\mswsock.dll",
    "C:\\windows\\System32\\kernel.appcore.dll",
    "C:\\windows\\System32\\NSI.dll",
    "C:\\windows\\SYSTEM32\\dhcpcsvc6.DLL",
    "C:\\windows\\SYSTEM32\\dhcpcsvc.DLL",
    "C:\\windows\\SYSTEM32\\DNSAPI.dll",
    "\\\\?\\C:\\0TIENDA724\\0tienda724-frontend\\node_modules\\node-sass\\vendor\\win32-x64-79\\binding.node",
    "C:\\windows\\system32\\napinsp.dll",
    "C:\\windows\\system32\\pnrpnsp.dll",
    "C:\\windows\\System32\\winrnr.dll",
    "C:\\windows\\system32\\NLAapi.dll",
    "C:\\windows\\system32\\wshbth.dll"
  ]
}